{
  "projects": [
    "https://codeberg.org/whou/simpleutils",
    "https://codeberg.org/whou/luafb",
    "https://codeberg.org/whou/mybad",
    "https://codeberg.org/whou/doorpad",
    "https://codeberg.org/whou/wyrmstatus",
    "https://codeberg.org/whou/spacing",
    "https://codeberg.org/whou/raysnake",
    "https://codeberg.org/whou/runnerup",
    "https://codeberg.org/whou/outing",
    "https://codeberg.org/whou/noticer",
    "https://codeberg.org/whou/goresult",
    "https://codeberg.org/whou/beanblogger",
    "https://codeberg.org/whou/gloomytop",
    "https://codeberg.org/whou/bcmd",
    "https://github.com/whouishere/imperialist-collector",
    "https://github.com/whouishere/create-vanilla",
    "https://github.com/whouishere/todo-flask",
    "https://codeberg.org/whou/twentyfortyeight",
    "https://codeberg.org/whou/txtshare",
    "https://codeberg.org/whou/cubesnstuff",
    "https://codeberg.org/whou/Woolly",
    "https://codeberg.org/whou/pong",
    "https://codeberg.org/whou/purejs-tictactoe",
    "https://codeberg.org/whou/cdnpilled",
    "https://codeberg.org/whou/worse"
  ]
}
